#
#Densities of binary aqueous solutions of 306 inorganic substances
#P. Novotny, O.Sohnel J.Chem.Eng.Data, 1988, 33, 49-55
#DOI: 10.1021/je00051a018
#
#substance      A*10^-2 -B*10 C*10^3   -D   E*10^2 -F*10^4 st*10^2 t Cmax- ref
Ag1Cl104        1.727  2.858  2.138  4.015  7.604  4.963  18.7  0-100  satd  
Ag1N1O3         1.473  3.442  2.869  4.298  11.74  9.798  29.5  0-100  satd  
Al1Cl3012       2.255  1.644      0  6.674      0      0  3.2   10-40  50
Al1N3O9         1.785  18.85  84.24  25.78  408.4  1806  20.0   10-35   38
Al2S3O12        3.699  6.816  5.346  55.22  39.07  33.00  10.1  0-100  satd
Ba1Br2          2.569  4.798  1.387  3.546  24.33 -2.784  37.9  0-100  satd
Ba1Cl2          1.878  1.535 -3.400  7.075 -84.98 -47.04  36.1  0-100  satd
Ba1Cl2O6       2.368  8.322  19.68 -0.1765 -2.594 84.22  20.0   0-60  satd
Ba1I2          3.379  5.313  3.887  8.130  23.12  16.67  7.6    0-100  satd
Ba1N2O6        2.738  28.04  5.422  123.8  625.2  424.1  6.0    0-70  satd
Ca1Br2         1.740  2.575  2.359  8.300  7.635  7.212  4.8    0-100  satd
Ca1Cl2         1.012  61.56  1.028  9.749  96.94  3.165  14.7   0-100  satd
Ca1I2          2.696  12.66  10.85  25.46  99.78  86.93  29.0   0-100  40
Ca1N2O6        1.298  2.052  1.023  8.426  0.776 -4.225  18.2   0-70   satd
Cd1Br2         2.376  3.817  2.510  6.035  16.42  11.83  14.9   0-100  satd
Cd1C12         1.637  2.355  1.325  6.428  6.973  3.648  8.9    0-100  satd
Cd1I2          3.073  2.411  1.364  4.539  4.843  2.609  7.2    0-100  satd
Cd1N2O6        1.948 -0.09302 -0.03925 5.591 -6.808 -5.439  9.7 0-100  satd
Cd1SO4         3.706  1.409  286.6  102.4  775.1  1579  34.3    0-25  satd
Co1N2O6        1.527 -0.2613 -0.4448 8.247 -2.591 -2.866 11.7   0-100  satd
Co1S1O4         1.714 -16.29 -99.52 16.32 -194.3 -973.2 17.2    5-40  satd
Cs1Br1          1.693  1.123  0.9765  2.066    0      0   2.1   0-100  45
Cs1Cl1          1.327  1.511  1.251  3.113  4.181  3.319  5.5   0-100  satd
Cs1F1           1.352  1.535  1.837  3.569  3.856  4.391  2.8   0-70  70
Cs1I1           2.051  1.521  1.193  1.306     0     0    1.8   0-100  satd
Cs1N1O3         1.503  2.602  1.872  4.299  8.322  5.842  4.8   0-100  satd
Cs2S1O4        3.071  4.340  7.308  11.67  17.54  32.15  5.7    0-100  satd
Cu1Cl2         1.291  3.214  2.704  9.100  15.50  18.21  29.1   0-100  satd
Cu1N2O6        1.470 -21.33 -68.82  0.4527 -126.0 -376.3 11.3   10-45  satd
Cu1S1O4        1.943  9.174  6.138  39.37  83.51  53.81  36.5   0-100  satd
Dy1Cl3         2.589  1.001  1.376  13.32  0  0  2.5            0-100  40
Er1Cl3         2.655  0.9711  1.314  13.60  0  0  2.6           0-100  50
Fe1Cl3         1.356  -7.891  -9.754  7.320  -51.82 -54.24 38.6 10-50  satd
Fe1S1O4        1.992  21.20  -40.35  63.49  305.3  22.43  15.4  10-60  satd
Gd1Cl3         2.538  1.149  1.386   13.06  0         0    3.4  0-100  40  
H3B103         0.5092  10.35  8.291  28.20  95.20  75.11  10.6  0-100  satd  
H1Br1          0.5998  1.300  1.061  1.263  2.160  1.647  13.5  0-70  60
H1Cl1          0.2046  0.9435  1.090  1.227  1.269  1.980  5.4  0-80  36
H1Cl104        0.5985 3.334 3.190 -0.05668 8.249 9.076 10.2     0-50  60
H1I1           0.9397  2.176  2.343  0.08738  5.792 7.778 12.9  0-70  66
H1N1O3         0.4063  1.554  1.096  2.798  2.478  2.761  14.8  0-100  0-50
H3P1O4         0.5574  5.606  0.2366 2.050 0.3387 -0.5906 23.7  0-80  95
H2S1O4         0.7060  2.367  1.676  4.903  5.698  3.985  7.8   0-100  0-70
Hg1Cl2         1.793  -22.07  -42.70  -124.1 -569.1 -839.1 8.2  5-50  satd
Hg1C2N2        1.811  -6.178  -5.559  -26.25 -111.8 -79.22 3.2  0-50  satd
K1Ag1C2N2      1.362  3.401  1.754  6.495  9.481  -4.920  5.6   0-80  10
K1Al1S2O8      2.839  17.49  3.178  83.17  433.4  257.6  6.7    0-80  satd
K1Br1          0.9057  1.876  1.425  4.019  5.985  4.092  14.0  0-100  satd
K1Br1O3        1.256  1.322  1.648  2.519  0  0  3.5            0-100  satd
K1Tart1        1.479  -1.819  -2.369 7.129 -28.01 -30.26  25.8  0-80  satd
K2C1O3         1.358  2.628  1.986  16.36  8.768  5.385  22.5   0-100  satd
K1Cl1           0.4971  0.7150  0.6506  2.376  0  0  3.6        0-100  satd
K1Cl103         0.8222  1.214  1.374  6.223  7.488  7.211  8.4  0-100  satd  
K1Cl104         0.8620  9.970  18.48  -60.10 -92.15  45.09 5.1  10-90  satd
K3Co1C6N6      2.310  21.62  24.29  93.16  405.9  478.8  3.0  10-70  13
K2Cr104        1.706  14.52  14.71  17.18  86.86  89.26  48.2  0-100  satd
K2Cr207        2.441  16.79  13.60  58.17  177.5  136.3  13.4  0-100  satd
K1F1            0.5364  1.208  1.317  3.790  3.121  3.399  9.4  0-60  45  
K3Fe1C6N6      1.847  0.2936  -0.9857  13.43  -27.84  -42.71  17.2  0-100  satd
K4Fe1C6N6      2.616  7.400  8.012  23.51  21.60  31.37  7.6  0-100  satd
K1H1C1O3         0.6315  -0.5602  1.991  0.2904  -11.27  0.2195  17.2  0-70  satd  
K1H2P1O4        1.001  5.870  7.083  7.676  38.06  45.61  13.7  0-100  satd  
K1H1S1O4         0.9981  -1.777  -17.01  3.911  -49.49  -197.7  4.9  0-60  satd  
K1I1            1.256  2.125  1.515  3.022  5.980  4.090  3.6  0-100  satd  
K1I103          1.735  -4.609  -0.4706  0  -45.37  0  3.8  0-100  satd  
K1Mn1O4         1.223  1.029  8.093  14.85  90.79  75.66  8.9  0-100  satd  
K4Mo1C8N8      3.038  8.047  12.71  37.05  68.93  209.4  1.0  10-70  9
K1N3           0.4896  1.020  0.8214  2.594  0  0  5.1  0-100  34  
K1N1O2         0.5586  2.176  1.369  2.729  4.447  2.163  39.7  0-90  satd
K1N1O3         0.6553  1.477  0.9596  2.323  2.364  1.500  12.2  0-100  satd
K1O1H1         0.5459  1.156  1.009  4.383  2.343  1.865  7.6  0-100  satd
K1S1C1N1       0.5792  3.997  2.914  5.116  12.67  9.190  23.2  0-100  satd
K2S1O4         1.619   7.181  5.994  34.81  77.97  61.85  10.0  0-100  satd  
La1Cl3         2.319  0.8064  1.110  13.20  0  0  2.1  0-100  satd  
Li1Br1          0.6032  0.00444  0.2329  0.6188  -2.448  -1.773  17.6  0-80  satd  
Li1Cl1          0.2446  0.5505  0.8671  0.7927  1.169  1.761  9.2  0-100  satd  
Li1Cl104        0.6957  3.280  2.913  3.409  12.42  12.88  5.9  0-100  satd  
Li1I1           0.9992  1.486  1.304  0.5602  3.721  3.197  5.1  0-100  satd  
Li1N1O3         0.4303  1.242  1.002  1.389  2.096  1.810  9.5  0-100  satd  
Li1O1H1          0.3016  -0.4827  -0.6976  2.786  -4.538  -5.916  8.1  0-100  satd  
Li2S1O4        1.008  1.058  1.329  10.07  0  0  3.9  0-100  satd  
Mg1Br2         1.585  1.676  1.987  7.343  5.026  5.966  11.6  0-100  satd  
Mg1Br206      3.224  51.20  15.01  64.78  338.5  179.2  6.4  0-40  satd
Mg1Cl2         0.8099  1.887  2.315  6.029  7.449  8.305  15.7  0-100  satd  
Mg1Cl2O8      1.694  3.138  1.278  9.611  8.639  0  2.4  0-100  satd
Mg1I2          2.357  3.178  2.723  6.551  12.35  9.773  4.7  0-100  satd  
Mg1N2O6       1.190  1.440  0.1877  8.257  -7.177  -16.99  6.2  0-80  30
Mg1S1O4         1.437  6.531  5.263  23.28  39.11  27.83  26.3  0-100  satd  
Mn1Cl1          1.022  -4.966  -13.07  3.659  -16.31  -47.74  25.9  0-70  satd  
Mn1S1O4         1.551  1.258  -0.5341  13.64  6.703  -3.531  19.3  0-100  satd  
N1H3           -0.0688  0.1989  0.09711  -0.1843  -0.4392  0.01126  12.7  0-75  40
N1H4Al1S2O8    2.111  -3.694  -5.642  15.42  -34.35  -42.53  6.5  0-100  satd
N1H4Ac1         0.2328  2.948  2.644  4.013  11.01  10.79  6.7  0-100  40  
N1H40x1        0.6697  0.3180  -0.05828  13.05  0.7378  -12.31  2.3  0-100  satd  
N1H4Cl1         0.2061  1.577  1.553  2.556  5.670  5.082  3.9  0-100  satd  
N1H4Cl104       0.6375  5.744  13.22  2.497  10.09  46.34  10.0  0-50  satd   
N1H4Fe1S2O8   2.483  2.470  1.462  39.48  14.73  0  2.9  0-100  satd  
N1H4H2P1O4      0.7666  3.191  2.382  13.39  23.41  15.34  15.5  0-100  satd  
N1H4H1S1O4       0.7754  2.064  2.135  11.05  7.436  7.135  3.1  0-100  50  
N1H4I1          0.963  -0.8591  -3.218  -0.4009  -19.70  -30.20  21.8  10-60  50  
N1H4N1O3         0.3614  1.446  1.009  1.898  2.918  1.870  10.6  0-100  satd  
N2H8Ni1S2O8    2.917  18.18  18.07  125.4  378.4  362.5  6.1  10-80  7
N2H8S1O4       0.8878  2.258  2.241  13.43  8.457  7.462  6.3  0-100  satd
Na2B407        2.577  19.73  12.12  192.1  517.9  365.6  11.4  0-100  satd
Na1Br1         0.8362  1.872  1.353  2.847  4.791  3.413  5.0  0-100  satd
Na1Br1O3       0.231  2.778  1.726  5.168  12.05  7.415  4.9  0-100  satd
Na1Ac1         0.4364  0.6740  0.6482  2.113  -0.9843  0  4.9  0-100  satd
Na1Tart1       0.466  3.657  2.732  15.98  15.10  10.76  4.0  0-100  32
Na1Cl1         0.4485  0.9634  0.6136  2.712  1.009  0  4.2  0-100  satd
Na1Cl103       0.7725  3.607  4.286  4.040  10.16  12.59  10.1  0-90  satd
Na1Cl104       0.8462  3.788  3.966  3.025  9.968  11.13  19.1  0-100  satd
Na2C1O3        1.241  6.213  6.124  18.36  31.78  36.72  16.8  0-100  satd  
Na1Ox1         1.178  5.450  5.997  7.073  45.83  77.51  3.6  0-100  satd
Na2Cr1O4       1.541  3.173  3.623  15.53  13.08  15.21  22.4  0-100  satd  
Na2Cr207       2.029  13.15  10.16  22.81  59.66  45.67  22.2  0-100  satd
Na1F1          0.4940  2.985  3.365  4.752  16.22  18.72  6.1  0-70  satd
Na1Form1       0.4520  0  -1.950  2.761  0  -3.695  3.8  0-60  satd
Na1H2P1O4      0.7649  -5.207  -6.142  -1.086  -26.60  -24.97  51.8  0-100  satd
Na2H1P1O4      1.255  -7.321  -5.656  -2.343  -52.46  -41.66  14.5  0-100  satd
Na5P307        3.505  3.627  2.354  53.23  1.838  1.210  6.1  20-80  12
Na1H1S1O4      1.022  3.093  3.084  9.324  0  0  3.5  0-50  22
Na1I1          1.196  2.120  1.396  2.502  5.095  3.346  3.9  0-100  satd
Na1I103        1.785  10.80  29.84  -10.59  -7.927  170.5  11.8  0-60  satd
Na1K1Tart1     1.490  2.323  1.944  13.45  4.364  2.506  4.2  0-80  satd
Na1Mn104       1.096  0.4598  -3.979  5.206  -18.29  61.06  8.7  0-40  26
Na2Mo104       1.923  6.168  5.791  -21.30  47.48  42.86  7.1  15-100  satd
Na1N3          0.4116  1.560  1.025  1.188  2.594  1.536  4.2  0-100  30  
Na1N1O2        0.5142  3.362  4.079  3.242  7.155  9.671  11.2  0-80  satd
Na1N1O3        0.6298  2.382  1.520  4.138  6.626  4.208  7.4  0-100  satd
Na1O1H1        0.4916  0.9064  0.6308  4.907  1.633  1.041  13.3  0-100  satd
Na3P1O4        1.473  -13.06  -10.43  -11.76  111.3  -86.91  6.5  0-100  satd  
Na4P207        3.030  9.731  5.524  113.8  203.8  119.1  4.4  0-100  satd
Na2S1          0.8653  0.4961  -40.69  9.759  -3.120  -5.370  10.5  0-100  satd  
Na1S1C1N1      0.4840  2.752  1.735  3.530  7.631  5.247  4.7  0-70  satd
Na2S103        1.651  22.90  22.80  45.90  177.1  176.2  18.1  0-100  satd  
Na2S1O4        1.412  4.535  3.766  17.51  21.11  17.73  4.8  0-100  satd  
N2S203         1.409  3.063  2.082  16.05  12.45  8.138  5.5  0-100  satd
Na2W104        2.554  -2.885  -2.066  1.756  -26.65  -21.07  16.9  0-100  satd  
Nd1Cl3         2.446  1.140  1.211  14.57  0  0  3.0  0-100  satd  
Ni1Cl2         1.187  -5.607  -5.650  2.635  -37.42  -34.53  23.2  0-100  satd  
Ni1N2O6        1.527  -12.09  -46.48  4.919  -67.71  -233.5  17.2  10-50  satd
Ni1S1O4        1.772  2.278  0.2337  22.04  6.476  -5.069  32.7  0-100  satd
Pb1N2O6        2.649  -9.459  -6.758  -19.60  -139.3  -91.02  28.3  0-100  satd
Pr1Cl3         2.399  1.066  1.180  14.40  0  0  3.0  0-100  satd  
Rb1Br1         1.303  1.609  1.190  2.820  2.544  0  3.7  0-80  satd
Rb1F1          0.9859  1.589  1.940  3.972  4.153  4.878  2.6  0-70  55
Rb1Cl1         0.9251  1.051  0.3060  3.330  2.809  0  4.3  0-100  satd
Rb1I1          1.665  0.8912  -0.7021  2.708  -3.551  -12.94  14.7  0-80  satd
Rb1N1O3        1.044  1.294  1.640  0.7562  -0.1728  2.592  21.8  0-100  satd
Rb2SO4         2.324  6.489  8.260  17.22  37.98  47.91  5.8  0-100  satd
Sm1Cl3         2.501  1.309  1.351  13.99  0  0  3.5  0-100  satd  
Sr1Br2         2.200  2.770  2.119  8.825  7.717  4.571  7.8  0-100  satd  
Sr1Br206       2.853  -2.778  0.2361  5.434  -24.18  -11.06  10.9  0-100  satd
Sr1Ac2         -1.134  -236.4  -521.3  -82.93  -780.2  -1426  2.5  20-35  26
Sr1Cl2         1.536  4.157  3.586  14.63  23.11  18.94  8.1  0-100  satd  
Sr1I2          3.012  6.103  3.874  11.72  28.70  17.04  5.1  0-100  satd  
Sr1N2O6        1.800  4.794  3.631  12.14  18.35  14.25  4.8  0-100  satd
Ti1N1O3        2.470  15.82  13.66  -3.533  58.72  67.73  17.1  0-100  satd
Ti2S1O4        5.062  -4.033  -6.553  195.3  -78.83  -126.7  4.7  0-100  satd  
U1O2N2O6       3.182  0.6041  2.092  -5.374  -16.83  -1.337  18.2  0- 100  satd
U1O2S104       3.189  -21.21  -36.17  13.28  -215.6  -337.6  40.6  10-95  36
Yb1Cl3         2.737  1.041  1.352  13.88  0  0  2.8  0-100  50  
Zn1Br2         1.990  2.767  1.040  9.900  7.184  1.730  20.9  0-100  satd  
Zn1Cl2         1.211  3.632  1.954  8.380  12.00  6.587  24.3  0-100  satd  
Zn1I2          2.762  3.293  1.959  10.82  9.385  6.576  20.8  0-100  satd  
Zn1N2O6        1.687  5.047  4.492  13.56  28.31  26.11  8.3  0-80  50
Zn1S1O1        1.758  3.895  3.402  15.83  19.79  16.43  8.0  0-100  satd
